…
```r
read_excel("./inst/extdata/purpose.xlsx", "NNW WNW")
#> Error in x[needs_ticks] <- paste0("`", gsub("`", "\\\\`", x[needs_ticks]), : NAs are not allowed in subscripted assignments
```

The [tidyxl](https://github.com/nacnudus/tidyxl) package imports the same table
into a format suitable for [unpivotr](https://github.com/nacnudus/unpivotr):


```r
(pivoted <- contents("./inst/extdata/purpose.xlsx", "NNW WNW")[[1]])
#> # A tibble: 128 × 15
#>    address   row   col content formula formula_type formula_ref
#>      <chr> <int> <int>   <chr>   <chr>        <chr>       <chr>
#> 1       D2     2     4      16    <NA>         <NA>        <NA>
#> 2       E2     2     5    <NA>    <NA>         <NA>        <NA>
#> 3       F2     2     6       6    <NA>         <NA>        <NA>
#> 4       G2     2     7    <NA>    <NA>         <NA>        <NA>
#> 5       D3     3     4       9    <NA>         <NA>        <NA>
#> 6       E3     3     5      20    <NA>         <NA>        <NA>
#> 7       F3     3     6       9    <NA>         <NA>        <NA>
#> 8       G3     3     7      20    <NA>         <NA>        <NA>
#> 9       B4     4     2      13    <NA>         <NA>        <NA>
#> 10      C4     4     3       7    <NA>         <NA>        <NA>
#> # ... with 118 more rows, and 8 more variables: formula_group <int>,
#> #   type <chr>, character <chr>, height <dbl>, width <dbl>,
#> #   style_format_id <dbl>, local_format_id <dbl>, comment <chr>
```
…
datacells <- 
  pivoted %>%
  filter(row >= 4, col >= 4) %>%
  select(row, col, value = as.integer(content))
datacells
#> # A tibble: 80 × 3
#>      row   col  value
#>    <int> <int>  <chr>
#> 1      4     4   7000
#> 2      4     5  27000
#> 3      4     6   <NA>
#> 4      4     7  13000
#> 5      5     4  12000
#> 6      5     5 137000
#> 7      5     6   9000
#> 8      5     7  81000
#> 9      6     4  10000
#> 10     6     5  64000
#> # ... with 70 more rows
```
…
