Examples
…
The example below provides unpivotr a hard coded range for the data cells of the table. (In examples 2 and 3, this range is identified by a few lines of code.)

# Load in spreadsheet and format data
testsheet_df <- xlsx_cells(path = unpivotr_example("newresconst.xlsx"), sheets = "Table 1 - Permits")
formats <- xlsx_formats(unpivotr_example("newresconst.xlsx"))

# Add variables to indicate data cells, header groups and directions. Then migrate
testsheet_df %>%
  orientate_auto(
    formats = formats, manual_value_references = "B8:M23",
    group_row_headers_by = list(~data_type), col_header_fill = "style"
  ) %>%
  migrate()

## # A tibble: 156 x 7
##      row   col .value header_label_01 header_label_02   row_label_01 row_label_02                   
##    <int> <int> <chr>  <chr>           <chr>             <chr>        <chr>                          
##  1     9     2 1377   United States   Total             2018         March . . . . . . . . . . . . ~
##  2     9     3 851    United States   1 unit            2018         March . . . . . . . . . . . . ~
##  3     9     4 40     United States   2 to 4 units      2018         March . . . . . . . . . . . . ~
##  4     9     5 486    United States   "5 units\r\n or ~ 2018         March . . . . . . . . . . . . ~
##  5     9     6 135    Northeast       Total             2018         March . . . . . . . . . . . . ~
##  6     9     7 51     Northeast       1 unit            2018         March . . . . . . . . . . . . ~
##  7     9     8 203    Midwest         Total             2018         March . . . . . . . . . . . . ~
##  8     9     9 119    Midwest         1 unit            2018         March . . . . . . . . . . . . ~
##  9     9    10 652    South           Total             2018         March . . . . . . . . . . . . ~
## 10     9    11 456    South           1 unit            2018         March . . . . . . . . . . . . ~
## 11     9    12 387    West            Total             2018         March . . . . . . . . . . . . ~
## 12     9    13 225    West            1 unit            2018         March . . . . . . . . . . . . ~
## 13    10     2 1364   United States   Total             2018         April . . . . . . . . . . . . ~
## 14    10     3 863    United States   1 unit            2018         April . . . . . . . . . . . . ~
## 15    10     4 41     United States   2 to 4 units      2018         April . . . . . . . . . . . . ~
## 16    10     5 460    United States   "5 units\r\n or ~ 2018         April . . . . . . . . . . . . ~
## 17    10     6 95     Northeast       Total             2018         April . . . . . . . . . . . . ~
## 18    10     7 51     Northeast       1 unit            2018         April . . . . . . . . . . . . ~
## 19    10     8 195    Midwest         Total             2018         April . . . . . . . . . . . . ~
## 20    10     9 123    Midwest         1 unit            2018         April . . . . . . . . . . . . ~
## # ... with 136 more rows
…
# Add variables to indicate data cells, header groups and  directions. Then migrate
housing_df <-
  orientate_auto(
    sheet = testsheet_df, formats = formats,
    manual_value_references = ~ col > cnr_df$col & row < cnr_df$row & data_type == "numeric",
    group_row_headers_by = list(~data_type), col_header_fill = "style"
  ) %>%
  migrate(numeric_value = T)

housing_df

## # A tibble: 156 x 7
##      row   col .value header_label_01 header_label_02   row_label_01 row_label_02                   
##    <int> <int>  <dbl> <chr>           <chr>             <chr>        <chr>                          
##  1     9     2   1377 United States   Total             2018         March . . . . . . . . . . . . ~
##  2     9     3    851 United States   1 unit            2018         March . . . . . . . . . . . . ~
##  3     9     4     40 United States   2 to 4 units      2018         March . . . . . . . . . . . . ~
##  4     9     5    486 United States   "5 units\r\n or ~ 2018         March . . . . . . . . . . . . ~
##  5     9     6    135 Northeast       Total             2018         March . . . . . . . . . . . . ~
##  6     9     7     51 Northeast       1 unit            2018         March . . . . . . . . . . . . ~
##  7     9     8    203 Midwest         Total             2018         March . . . . . . . . . . . . ~
##  8     9     9    119 Midwest         1 unit            2018         March . . . . . . . . . . . . ~
##  9     9    10    652 South           Total             2018         March . . . . . . . . . . . . ~
## 10     9    11    456 South           1 unit            2018         March . . . . . . . . . . . . ~
## 11     9    12    387 West            Total             2018         March . . . . . . . . . . . . ~
## 12     9    13    225 West            1 unit            2018         March . . . . . . . . . . . . ~
## 13    10     2   1364 United States   Total             2018         April . . . . . . . . . . . . ~
## 14    10     3    863 United States   1 unit            2018         April . . . . . . . . . . . . ~
## 15    10     4     41 United States   2 to 4 units      2018         April . . . . . . . . . . . . ~
## 16    10     5    460 United States   "5 units\r\n or ~ 2018         April . . . . . . . . . . . . ~
## 17    10     6     95 Northeast       Total             2018         April . . . . . . . . . . . . ~
## 18    10     7     51 Northeast       1 unit            2018         April . . . . . . . . . . . . ~
## 19    10     8    195 Midwest         Total             2018         April . . . . . . . . . . . . ~
## 20    10     9    123 Midwest         1 unit            2018         April . . . . . . . . . . . . ~
## # ... with 136 more rows
…
  housing_df
}

# Get names of sheets in Table
sheets <- tidyxl::xlsx_sheet_names(unpivotr_example("newresconst.xlsx"))

# Apply get_table to each sheet
all_sheets_housing <- sheets %>% map_dfr(get_table)

all_sheets_housing

## # A tibble: 780 x 9
##      row   col .value region       units               year_var month_var date_var   sheet          
##    <int> <int>  <dbl> <chr>        <chr>               <chr>    <chr>     <date>     <chr>          
##  1     9     2   1377 United Stat~ Total               2018     March     2018-03-15 Table 1 - Perm~
##  2     9     3    851 United Stat~ 1 unit              2018     March     2018-03-15 Table 1 - Perm~
##  3     9     4     40 United Stat~ 2 to 4 units        2018     March     2018-03-15 Table 1 - Perm~
##  4     9     5    486 United Stat~ "5 units\r\n or mo~ 2018     March     2018-03-15 Table 1 - Perm~
##  5     9     6    135 Northeast    Total               2018     March     2018-03-15 Table 1 - Perm~
##  6     9     7     51 Northeast    1 unit              2018     March     2018-03-15 Table 1 - Perm~
##  7     9     8    203 Midwest      Total               2018     March     2018-03-15 Table 1 - Perm~
##  8     9     9    119 Midwest      1 unit              2018     March     2018-03-15 Table 1 - Perm~
##  9     9    10    652 South        Total               2018     March     2018-03-15 Table 1 - Perm~
## 10     9    11    456 South        1 unit              2018     March     2018-03-15 Table 1 - Perm~
## 11     9    12    387 West         Total               2018     March     2018-03-15 Table 1 - Perm~
## 12     9    13    225 West         1 unit              2018     March     2018-03-15 Table 1 - Perm~
## 13    10     2   1364 United Stat~ Total               2018     April     2018-04-15 Table 1 - Perm~
## 14    10     3    863 United Stat~ 1 unit              2018     April     2018-04-15 Table 1 - Perm~
## 15    10     4     41 United Stat~ 2 to 4 units        2018     April     2018-04-15 Table 1 - Perm~
## 16    10     5    460 United Stat~ "5 units\r\n or mo~ 2018     April     2018-04-15 Table 1 - Perm~
## 17    10     6     95 Northeast    Total               2018     April     2018-04-15 Table 1 - Perm~
## 18    10     7     51 Northeast    1 unit              2018     April     2018-04-15 Table 1 - Perm~
## 19    10     8    195 Midwest      Total               2018     April     2018-04-15 Table 1 - Perm~
## 20    10     9    123 Midwest      1 unit              2018     April     2018-04-15 Table 1 - Perm~
## # ... with 760 more rows
…
