Join data cells to headers — enhead • unpivotr
…
  select(row, col, age = chr)
gender <-
  filter(cells, row == 1) %>%
  select(row, col, gender = chr)
satisfaction <-
  filter(cells, row == 2) %>%
  select(row, col, satisfaction = chr)
# From each data cell, search for the nearest one of each of the headers
data_cells %>%
  enhead(gender, "up-left") %>%
  enhead(satisfaction, "up") %>%
  enhead(qualification, "left-up") %>%
  enhead(age, "left") %>%
  select(-row, -col)
#> # A tibble: 72 × 5
#>     count gender satisfaction qualification     age    
#>     <int> <chr>  <chr>        <chr>             <chr>  
#>  1   7000 Female 0 - 6        Bachelor's degree 15 - 24
#>  2  12000 Female 0 - 6        Bachelor's degree 25 - 44
#>  3  10000 Female 0 - 6        Bachelor's degree 45 - 64
#>  4  27000 Female 7 - 10       Bachelor's degree 15 - 24
#>  5 137000 Female 7 - 10       Bachelor's degree 25 - 44
#>  6  64000 Female 7 - 10       Bachelor's degree 45 - 64
#>  7  18000 Female 7 - 10       Bachelor's degree 65+    
#>  8   9000 Male   0 - 6        Bachelor's degree 25 - 44
#>  9   7000 Male   0 - 6        Bachelor's degree 45 - 64
#> 10   7000 Male   0 - 6        Bachelor's degree 65+    
#> # ℹ 62 more rows

# The `drop` argument controls what happens when for some cells there is no
# header in the given direction. When `drop = TRUE` (the default), cells that
# can't be joined to a header are dropped.  Otherwise they are kept.
enhead(data_cells, gender, "up")
#> # A tibble: 33 × 4
#>      row   col count gender
#>    <int> <int> <int> <chr> 
#>  1     3     3  7000 Female
#>  2     4     3 12000 Female
#>  3     5     3 10000 Female
#>  4     7     3 29000 Female
#>  5     8     3 34000 Female
#>  6     9     3 30000 Female
#>  7    10     3 12000 Female
#>  8    12     3 10000 Female
#>  9    13     3  6000 Female
#> 10    14     3  5000 Female
#> # ℹ 23 more rows
enhead(data_cells, gender, "up", drop = FALSE)
#> # A tibble: 72 × 4
#>      row   col count gender
#>    <int> <int> <int> <chr> 
#>  1     3     3  7000 Female
#>  2     4     3 12000 Female
#>  3     5     3 10000 Female
#>  4     7     3 29000 Female
#>  5     8     3 34000 Female
#>  6     9     3 30000 Female
#>  7    10     3 12000 Female
#>  8    12     3 10000 Female
#>  9    13     3  6000 Female
#> 10    14     3  5000 Female
#> # ℹ 62 more rows
…
