Unpivot Complex and Irregular Data Layouts • unpivotr
…
Using unpivotr functions, we associate the data cells with the headers, by proximity in given compass directions.

# From each data cell, search for the nearest one of each of the headers
unpivoted <-
  datacells %>%
  NNW(col_headers$`1`) %>% # Search north (up) and north-west (up-left)
  N(col_headers$`2`) %>% # Search directly north (up)
  WNW(row_headers$`1`) %>% # Search west (left) and north-west
  W(row_headers$`2`) # Search directly left (west)
unpivoted
#> # A tibble: 72 x 7
#>      row   col   chr header.data header.header  header.data.data
#>    <int> <int> <chr>       <chr>         <chr>             <chr>
#>  1     3     3  7000      Female         0 - 6 Bachelor's degree
#>  2     4     3 12000      Female         0 - 6 Bachelor's degree
#>  3     5     3 10000      Female         0 - 6 Bachelor's degree
#>  4     7     3 29000      Female         0 - 6       Certificate
#>  5     8     3 34000      Female         0 - 6       Certificate
#>  6     9     3 30000      Female         0 - 6       Certificate
#>  7    10     3 12000      Female         0 - 6       Certificate
#>  8    12     3 10000      Female         0 - 6           Diploma
#>  9    13     3  6000      Female         0 - 6           Diploma
#> 10    14     3  5000      Female         0 - 6           Diploma
#> # ... with 62 more rows, and 1 more variables: header.header.header <chr>
…
