Small Multiples • unpivotr
…
Finally, bind the data cells to the column headers (this is the real magic). For more examples of how the compass directions work (the NNW() and N() functions below), see the vignette called Compass Directions.

datacells %>%
  NNW(col_headers[[1]]) %>% # This header isn't in every column
  NNW(col_headers[[2]]) %>%  # Nor is this header
  N(col_headers[[3]])    # But this one is

## # A tibble: 24 x 6
##      row   col  value.data                 i.value i.value.1 value.header
##    <int> <int>       <chr>                   <chr>     <dbl>        <chr>
##  1    18    17 Fixed Price IF NWPL Rocky Mountains   2.06000          BID
##  2    18    18 Fixed Price IF NWPL Rocky Mountains   2.08000        OFFER
##  3    19    17 Fixed Price IF NWPL Rocky Mountains   2.39500          BID
##  4    19    18 Fixed Price IF NWPL Rocky Mountains   2.41500        OFFER
##  5    19    19       Basis IF NWPL Rocky Mountains  -0.56500          BID
##  6    19    20       Basis IF NWPL Rocky Mountains  -0.54500        OFFER
##  7    20    17 Fixed Price IF NWPL Rocky Mountains   2.59400          BID
##  8    20    18 Fixed Price IF NWPL Rocky Mountains   2.61400        OFFER
##  9    20    19       Basis IF NWPL Rocky Mountains  -0.49375          BID
## 10    20    20       Basis IF NWPL Rocky Mountains  -0.47375        OFFER
## # ... with 14 more rows
…
Finally, map the ‘tidy’ function to each ‘Fixed Price’ header, and bind the results. into one data frame. The purrr() package is used here, but this could also be done with the apply() family of functions.

map_df(fixed_price, tidy) %>%
  arrange(col, row) # See that, from row 39, the region changes, as it ought.

## # A tibble: 240 x 6
##      row   col  value.data                i.value i.value.1 value.header
##    <int> <int>       <chr>                  <chr>     <dbl>        <chr>
##  1    28     7 Fixed Price IF CIG Rocky Mountains  1.940000          BID
##  2    29     7 Fixed Price IF CIG Rocky Mountains  1.960000          BID
##  3    30     7 Fixed Price IF CIG Rocky Mountains  2.345000          BID
##  4    31     7 Fixed Price IF CIG Rocky Mountains  2.547750          BID
##  5    32     7 Fixed Price IF CIG Rocky Mountains  2.471286          BID
##  6    33     7 Fixed Price IF CIG Rocky Mountains  3.311000          BID
##  7    34     7 Fixed Price IF CIG Rocky Mountains  2.550750          BID
##  8    39     7 Fixed Price             AECO / NIT  2.376377          BID
##  9    40     7 Fixed Price             AECO / NIT  2.397635          BID
## 10    41     7 Fixed Price             AECO / NIT  2.551891          BID
## # ... with 230 more rows
…
map_df(fixed_price, tidy) %>%
  arrange(col, row) # See that, from row 39, the context loops, as it ought.

## # A tibble: 240 x 7
##      row   col  value.data                i.value i.value.1 value.header
##    <int> <int>       <chr>                  <chr>     <dbl>        <chr>
##  1    28     7 Fixed Price IF CIG Rocky Mountains  1.940000          BID
##  2    29     7 Fixed Price IF CIG Rocky Mountains  1.960000          BID
##  3    30     7 Fixed Price IF CIG Rocky Mountains  2.345000          BID
##  4    31     7 Fixed Price IF CIG Rocky Mountains  2.547750          BID
##  5    32     7 Fixed Price IF CIG Rocky Mountains  2.471286          BID
##  6    33     7 Fixed Price IF CIG Rocky Mountains  3.311000          BID
##  7    34     7 Fixed Price IF CIG Rocky Mountains  2.550750          BID
##  8    39     7 Fixed Price             AECO / NIT  2.376377          BID
##  9    40     7 Fixed Price             AECO / NIT  2.397635          BID
## 10    41     7 Fixed Price             AECO / NIT  2.551891          BID
## # ... with 230 more rows, and 1 more variables: value <chr>
…
