Join a bag of data cells to some header, by proximity in a given direction, — join_header • unpivotr
…
#> 
#> $`2`
#>   row col header
#> 2   2   3  0 - 6
#> 3   2   4 7 - 10
#> 5   2   5  0 - 6
#> 6   2   6 7 - 10
#> 
# From each data cell, search for the nearest one of each of the headers
datacells %>%
  NNW(col_headers$`1`) %>%
  N(col_headers$`2`) %>%
  WNW(row_headers$`1`) %>%
  W(row_headers$`2`)
#> # A tibble: 72 × 10
#>      row   col character double integer logical header.data header.header
#>    <int> <int>     <chr>  <dbl>   <int>   <lgl>       <chr>         <chr>
#> 1      3     3      7000     NA      NA      NA      Female         0 - 6
#> 2      4     3     12000     NA      NA      NA      Female         0 - 6
#> 3      5     3     10000     NA      NA      NA      Female         0 - 6
#> 4      7     3     29000     NA      NA      NA      Female         0 - 6
#> 5      8     3     34000     NA      NA      NA      Female         0 - 6
#> 6      9     3     30000     NA      NA      NA      Female         0 - 6
#> 7     10     3     12000     NA      NA      NA      Female         0 - 6
#> 8     12     3     10000     NA      NA      NA      Female         0 - 6
#> 9     13     3      6000     NA      NA      NA      Female         0 - 6
#> 10    14     3      5000     NA      NA      NA      Female         0 - 6
#> # ... with 62 more rows, and 2 more variables: header.data.data <chr>,
#> #   header.header.header <chr>
…
