Pack cell values from separate columns per data type into one list-column — pack • unpivotr
…
# Drop non-data columns from a wide data frame of cells from tidyxl
if (require(tidyxl)) {
  cells <- tidyxl::xlsx_cells(system.file("extdata", "purpose.xlsx", package = "unpivotr"))
  cells

  pack(cells) %>%
    dplyr::select(row, col, value) %>%
    unpack()
}
#> Loading required package: tidyxl
#> # A tibble: 1,721 x 7
#>      row   col data_type blank character                           error numeric
#>    <int> <int> <chr>     <lgl> <chr>                               <chr>   <dbl>
#>  1     1     1 character NA    The data is 'Sense of purpose by h… NA         NA
#>  2     2     1 character NA    It can be found in the section 'Pe… NA         NA
#>  3     3     1 character NA    The description provided by Statis… NA         NA
#>  4     5     1 character NA    The 2014 New Zealand General Socia… NA         NA
#>  5     6     1 character NA    It provides new and redeveloped da… NA         NA
#>  6     7     1 character NA    Symbols used in this table:         NA         NA
#>  7     8     1 character NA    S - Data has been suppressed.       NA         NA
#>  8     9     1 character NA    * - Relative sampling error of 50 … NA         NA
#>  9    10     1 character NA    For more tables using the NZGSS 20… NA         NA
#> 10    11     1 character NA    Data quality                        NA         NA
#> # … with 1,711 more rows
…
