Small Multiples • unpivotr
…
The same procedure can be mapped to every small multiple.

unpivoted <-
  purrr::map_dfr(partitions$cells,
                 ~ .x %>%
                   behead("NNW", "title") %>%
                   behead("NNW", "price") %>%
                   behead("N", "bid_offer")) %>%
  select(-data_type, -character, -date)
unpivoted

## # A tibble: 240 × 6
##      row   col numeric title                   price       bid_offer
##    <int> <int>   <dbl> <chr>                   <chr>       <chr>    
##  1    17    17    1.89 IF NWPL Rocky Mountains Fixed Price BID      
##  2    17    18    1.91 IF NWPL Rocky Mountains Fixed Price OFFER    
##  3    18    17    2.06 IF NWPL Rocky Mountains Fixed Price BID      
##  4    18    18    2.08 IF NWPL Rocky Mountains Fixed Price OFFER    
##  5    19    17    2.40 IF NWPL Rocky Mountains Fixed Price BID      
##  6    19    18    2.42 IF NWPL Rocky Mountains Fixed Price OFFER    
##  7    20    17    2.59 IF NWPL Rocky Mountains Fixed Price BID      
##  8    20    18    2.61 IF NWPL Rocky Mountains Fixed Price OFFER    
##  9    21    17    2.58 IF NWPL Rocky Mountains Fixed Price BID      
## 10    21    18    2.60 IF NWPL Rocky Mountains Fixed Price OFFER    
## # ℹ 230 more rows
…
## Warning: Supplying `...` without names was deprecated in tidyr 1.0.0.
## ℹ Please specify a name for each selection.
## ℹ Did you want `data = -row`?
## Call `lifecycle::last_lifecycle_warnings()` to see where this warning was
## generated.

unpivoted <- left_join(unpivoted, row_headers, by = "row")
unpivoted

## # A tibble: 240 × 7
##      row   col numeric title                   price       bid_offer row_header 
##    <int> <int>   <dbl> <chr>                   <chr>       <chr>     <chr>      
##  1    17    17    1.89 IF NWPL Rocky Mountains Fixed Price BID       Cash       
##  2    17    18    1.91 IF NWPL Rocky Mountains Fixed Price OFFER     Cash       
##  3    18    17    2.06 IF NWPL Rocky Mountains Fixed Price BID       ROM        
##  4    18    18    2.08 IF NWPL Rocky Mountains Fixed Price OFFER     ROM        
##  5    19    17    2.40 IF NWPL Rocky Mountains Fixed Price BID       Dec-01     
##  6    19    18    2.42 IF NWPL Rocky Mountains Fixed Price OFFER     Dec-01     
##  7    20    17    2.59 IF NWPL Rocky Mountains Fixed Price BID       Dec-01 to …
##  8    20    18    2.61 IF NWPL Rocky Mountains Fixed Price OFFER     Dec-01 to …
##  9    21    17    2.58 IF NWPL Rocky Mountains Fixed Price BID       Apr-02 to …
## 10    21    18    2.60 IF NWPL Rocky Mountains Fixed Price OFFER     Apr-02 to …
## # ℹ 230 more rows
…
